k_kumarses = {
	1004.1.1 = {
		holder = sun_elvish0001	#Jaher
	}
}

d_varamhar = {
	1004.1.1 = {
		liege = e_bulwar
		holder = sun_elvish0025	# Varamel Varamzuir
	}
}

c_varamhar = {
	1004.1.1 = {
		holder = sun_elvish0025	# Varamel Varamzuir
	}
}
