k_merewood = {
	1000.1.1 = { change_development_level = 8 }
}

c_moreced = {
	1000.1.1 = { change_development_level = 10 }
}

d_nortmerewood = {
	1000.1.1 = { change_development_level = 7 }
}

c_aldaine = {
	1000.1.1 = { change_development_level = 9 }
}

c_oudmerewood = {
	1000.1.1 = { change_development_level = 7 }
}

c_acenthan = {
	1000.1.1 = { change_development_level = 9 }
}