387 = {

    # Misc
    culture = ekhani
    religion = mother_akan

    # History
}

388 = {

    # Misc
    culture = ekhani
    religion = mother_akan

    # History
}

389 = {

    # Misc
    culture = ekhani
    religion = mother_akan

    # History
}

390 = {

    # Misc
    culture = ekhani
    religion = mother_akan

    # History
}

391 = {

    # Misc
    culture = ekhani
    religion = mother_akan

    # History
}

392 = {

    # Misc
    culture = ekhani
    religion = mother_akan

    # History
}

402 = {

    # Misc
    culture = ekhani
    religion = mother_akan

    # History
}

406 = {

    # Misc
    culture = ekhani
    religion = mother_akan
	holding = castle_holding

    # History
}

407 = {

    # Misc
    culture = ekhani
    religion = mother_akan

    # History
}