#k_akalses
##d_akalses
###c_akalses
616 = {		#Akalses

    # Misc
    culture = akalsesi
    religion = old_bulwari_sun_cult
	holding = castle_holding

    # History
}

###c_danas_naza
615 = {		#Danas Naza

    # Misc
    culture = akalsesi
    religion = old_bulwari_sun_cult
	holding = castle_holding

    # History
}

###c_uqlum
617 = {		#Uqlum

    # Misc
    culture = akalsesi
    religion = old_bulwari_sun_cult
	holding = castle_holding

    # History
}

##d_azkabar
###c_azkabar
613 = {		#Azkabar

    # Misc
    culture = zanite
    religion = old_bulwari_sun_cult
	holding = castle_holding

    # History
}

###c_kuokrumar
628 = {		#Kuokrumar

    # Misc
    culture = zanite
    religion = old_bulwari_sun_cult
	holding = castle_holding

    # History
}

###c_markumar
624 = {		#Markumar

    # Misc
    culture = akalsesi
    religion = old_bulwari_sun_cult
	holding = castle_holding

    # History
}

##d_setadazar
###c_setadazar
622 = {		#Setadazar

    # Misc
    culture = akalsesi
    religion = old_bulwari_sun_cult
	holding = castle_holding

    # History
}

###c_danas_aban
621 = {		#Danas Aban

    # Misc
    culture = akalsesi
    religion = old_bulwari_sun_cult
	holding = castle_holding

    # History
}

###c_orean
623 = {		#Orean

    # Misc
    culture = akalsesi
    religion = old_bulwari_sun_cult
	holding = castle_holding

    # History
}

##d_kalisad
###c_kalisad
618 = {		#Kalisad

    # Misc
    culture = akalsesi
    religion = old_bulwari_sun_cult
	holding = castle_holding

    # History
}

###c_barzilhar
619 = {		#Barzilhar

    # Misc
    culture = akalsesi
    religion = old_bulwari_sun_cult
	holding = castle_holding

    # History
}

###c_mitiq
620 = {		#Mitiq

    # Misc
    culture = akalsesi
    religion = old_bulwari_sun_cult
	holding = castle_holding

    # History
}