﻿object={
	name="cliff big 01"
	clamp_to_water_level=no
	render_under_water=no
	generated_content=no
	layer="temp_layer"
	pdxmesh="cliff_big_01_mesh"
	count=0
}
object={
	name="cliff big 02"
	clamp_to_water_level=no
	render_under_water=no
	generated_content=no
	layer="temp_layer"
	pdxmesh="cliff_big_02_mesh"
	count=2
	transform="1581.965332 -1.325195 2543.045166 0.000000 -0.196916 0.000000 0.980420 1.000000 1.000000 1.000000
1583.229248 -1.593506 2534.232422 0.000000 0.852174 0.000000 0.523258 1.000000 1.000000 1.000000
"}
object={
	name="cliff end 01"
	clamp_to_water_level=no
	render_under_water=no
	generated_content=no
	layer="temp_layer"
	pdxmesh="cliff_end_01_mesh"
	count=0
}
object={
	name="cliff end 02"
	clamp_to_water_level=no
	render_under_water=no
	generated_content=no
	layer="temp_layer"
	pdxmesh="cliff_end_02_mesh"
	count=0
}
object={
	name="cliff rock 01"
	clamp_to_water_level=no
	render_under_water=no
	generated_content=no
	layer="temp_layer"
	pdxmesh="cliff_rock_01_mesh"
	count=8
	transform="1579.866821 0.000000 2540.067871 0.000000 0.000000 0.000000 1.000000 1.000000 1.000000 1.000000
1585.152344 0.000000 2543.884277 0.000000 0.000000 0.000000 1.000000 1.000000 1.000000 1.000000
1585.897949 0.000000 2544.564209 0.000000 0.000000 0.000000 1.000000 1.000000 1.000000 1.000000
1587.430054 0.000000 2540.401367 0.000000 0.000000 0.000000 1.000000 1.000000 1.000000 1.000000
1587.239136 0.000000 2539.121338 0.000000 0.000000 0.000000 1.000000 1.000000 1.000000 1.000000
1638.264282 0.000000 3756.358887 0.000000 0.000000 0.000000 1.000000 1.000000 1.000000 1.000000
1639.419800 0.000000 3757.035156 0.000000 0.000000 0.000000 1.000000 1.000000 1.000000 1.000000
1636.057495 -0.729248 3754.290283 0.000000 0.000000 0.000000 1.000000 1.000000 1.000000 1.000000
"}
object={
	name="cliff rock 02"
	clamp_to_water_level=no
	render_under_water=no
	generated_content=no
	layer="temp_layer"
	pdxmesh="cliff_rock_02_mesh"
	count=18
	transform="1586.758789 0.000000 2543.661133 0.000000 0.000000 0.000000 1.000000 1.000000 1.000000 1.000000
1584.615234 0.000000 2544.182617 0.000000 0.000000 0.000000 1.000000 1.000000 1.000000 1.000000
1579.007812 0.000000 2540.321777 0.000000 0.000000 0.000000 1.000000 1.000000 1.000000 1.000000
1578.691040 0.000000 2538.839355 0.000000 0.000000 0.000000 1.000000 1.000000 1.000000 1.000000
1580.551025 0.000000 2542.290527 0.000000 0.000000 0.000000 1.000000 1.000000 1.000000 1.000000
1584.207275 0.000000 2538.875000 0.000000 0.000000 0.000000 1.000000 1.000000 1.000000 1.000000
1586.335693 0.000000 2539.015381 0.000000 0.000000 0.000000 1.000000 1.000000 1.000000 1.000000
1587.773193 0.000000 2541.469238 0.000000 0.000000 0.000000 1.000000 1.000000 1.000000 1.000000
1640.084106 0.000000 3756.428467 0.000000 0.000000 0.000000 1.000000 1.000000 1.000000 1.000000
1638.604004 0.000000 3757.213867 0.000000 0.000000 0.000000 1.000000 1.000000 1.000000 1.000000
1640.047607 0.000000 3752.579102 0.000000 0.000000 0.000000 1.000000 1.000000 1.000000 1.000000
1640.010010 0.000000 3752.037109 0.000000 0.000000 0.000000 1.000000 1.000000 1.000000 1.000000
1638.710815 0.000000 3751.196045 0.000000 0.000000 0.000000 1.000000 1.000000 1.000000 1.000000
1634.629761 0.000000 3753.446777 0.000000 0.000000 0.000000 1.000000 1.000000 1.000000 1.000000
1636.606934 0.000000 3754.751709 0.000000 0.000000 0.000000 1.000000 1.000000 1.000000 1.000000
1640.423706 0.000000 3757.230957 0.000000 0.000000 0.000000 1.000000 1.000000 1.000000 1.000000
1639.196411 0.000000 3757.927979 0.000000 0.000000 0.000000 1.000000 1.000000 1.000000 1.000000
1638.684814 0.000000 3758.701660 0.000000 0.000000 0.000000 1.000000 1.000000 1.000000 1.000000
"}
object={
	name="cliff rock 03"
	clamp_to_water_level=no
	render_under_water=no
	generated_content=no
	layer="temp_layer"
	pdxmesh="cliff_rock_03_mesh"
	count=4
	transform="1582.838257 0.000000 2543.730469 0.000000 0.000000 0.000000 1.000000 1.000000 1.000000 1.000000
1586.356567 0.000000 2546.156982 0.000000 0.000000 0.000000 1.000000 1.000000 1.000000 1.000000
1586.083984 0.000000 2539.619385 0.000000 0.000000 0.000000 1.000000 1.000000 1.000000 1.000000
1586.657227 0.000000 2540.948975 0.000000 0.000000 0.000000 1.000000 1.000000 1.000000 1.000000
"}
object={
	name="cliff small 01"
	clamp_to_water_level=no
	render_under_water=no
	generated_content=no
	layer="temp_layer"
	pdxmesh="cliff_small_01_mesh"
	count=0
}
